{
    "project_type": "javascript",

    "debugMode" : 1,
    "showFPS" : true,
    "frameRate" : 60,
    "noCache" : false,
    "id" : "gameCanvas",
    "renderMode" : 1,
    "engineDir":"frameworks/cocos2d-html5",

    "modules" : ["cocos2d","extensions"],

    "jsList" : [
        "src/resource.js",
        "src/app.js",
        "src/frist.js",
        "src/AllFun.js",
        "src/GameMain.js",
        "src/GameStart.js",
        "src/GameEnd.js",
        "src/Angin.js",
        "src/Angin1.js",
        "src/NetMain.js",
        "src/data.js"
    ]
}
