{
    "project_type": "javascript",

    "debugMode" : 1,
    "showFPS" : false,
    "frameRate" : 60,
    "noCache" : false,
    "id" : "gameCanvas",
    "renderMode" : 1,
    "engineDir":"frameworks/cocos2d-html5",

    "modules" : ["cocos2d"],

    "jsList" : [
        "src/resource.js",
        "src/app.js",
        "src/GameStart.js",
        "src/GameMain.js",
        "src/blackLayer.js",
        "src/Angin.js",
        "src/Data.js",
        "src/Angin1.js",
        "src/NetMain.js",
        "src/frist.js",
        "src/GameOver.js"
    ]
}
