{
    "result": 1,
    "errorcode": 0,
    "data": {
        "gameRankList": [
            {
                "rankNo": 1,
                "scoreValue": 26500,
                "scoreUnit": "分",
                "isHost": false,
                "playerInfo": {
                    "gid": "e14b8635703668c9fa73af7cb6cf4f8f",
                    "nickname": "余生",
                    "headUrl": "http://wx.qlogo.cn/mmopen/aSPLicTawic0R7VkaSKibUWaT0UCvrSTD8G7JQy985tMJyWObWlBbY5ErqvGutLDva0sPmOcEm4p3ZzP8Bpl1ibgmu5gG5YvUJicR/0",
                    "homeLink": "http://wx.1758.com/game/h5/user.htm?sid=e14b8635703668c9fa73af7cb6cf4f8f&tp=full&ex1758=1",
                    "userType": 5,
                    "isHost": false
                }
            },
            {
                "rankNo": 2,
                "scoreValue": 20660,
                "scoreUnit": "分",
                "isHost": false,
                "playerInfo": {
                    "gid": "2405d2dee23bcbd26fde2240043c10cf",
                    "nickname": "无痕",
                    "headUrl": "http://q.qlogo.cn/qqapp/101026391/5E2F719FD1E804DB5252EDFB2964E659/100",
                    "homeLink": "http://wx.1758.com/game/h5/user.htm?sid=2405d2dee23bcbd26fde2240043c10cf&tp=full&ex1758=1",
                    "userType": 2,
                    "isHost": false
                }
            },
            {
                "rankNo": 3,
                "scoreValue": 18120,
                "scoreUnit": "分",
                "isHost": false,
                "playerInfo": {
                    "gid": "069d790892ed0a9abadd9e8e6f92ccc6",
                    "nickname": "DIN",
                    "headUrl": "http://wx.qlogo.cn/mmopen/bdPrkfibRaqictFGQc9ykcGgpX0iaRic4blMzKhN9rvHZiaevuuhvIbrXQUZ7XyLze6T6ZOghsJH5fYbzuhYq8PI9TicOn80WeZ9Wu/0",
                    "homeLink": "http://wx.1758.com/game/h5/user.htm?sid=069d790892ed0a9abadd9e8e6f92ccc6&tp=full&ex1758=1",
                    "userType": 5,
                    "isHost": false
                }
            },
            {
                "rankNo": 4,
                "scoreValue": 17470,
                "scoreUnit": "分",
                "isHost": true,
                "playerInfo": {
                    "gid": "c2faf02b715fd83f5c4ae10a2d98c710",
                    "nickname": "飞花飘絮",
                    "headUrl": "http://wx.qlogo.cn/mmopen/xwM5o6EmKsmEicmsaNAKgaTiaQgdKMbRgma5mMicT3vRQ6Em9bibX8icw6bXc88CT9ulTGbr0ZLEkMhHKiaOUX1S0icME1yWjgZibmE5/0",
                    "homeLink": "http://wx.1758.com/game/h5/user.htm?sid=c2faf02b715fd83f5c4ae10a2d98c710&tp=full&ex1758=1",
                    "userType": 5,
                    "isHost": true
                }
            },
            {
                "rankNo": 5,
                "scoreValue": 16300,
                "scoreUnit": "分",
                "isHost": false,
                "playerInfo": {
                    "gid": "fb0d05f36b12c8738457670c6fb735e7",
                    "nickname": "雪地里的火焰",
                    "headUrl": "http://q.qlogo.cn/qqapp/101026391/783165BE37D28F1E569809395ABB68CA/100",
                    "homeLink": "http://wx.1758.com/game/h5/user.htm?sid=fb0d05f36b12c8738457670c6fb735e7&tp=full&ex1758=1",
                    "userType": 2,
                    "isHost": false
                }
            },
            {
                "rankNo": 6,
                "scoreValue": 2480,
                "scoreUnit": "分",
                "isHost": false,
                "playerInfo": {
                    "gid": "bd484f16af25413184a19a5f911356c6",
                    "nickname": "绿糖",
                    "headUrl": "http://q.qlogo.cn/qqapp/101326100/B0A8C1F6822A9C7A7D9FB0540E8E7C24/100",
                    "homeLink": "http://wx.1758.com/game/h5/user.htm?sid=bd484f16af25413184a19a5f911356c6&tp=full&ex1758=1",
                    "userType": 20,
                    "isHost": false
                }
            }
        ]
    }
}