{
  "version":1.0,
  "gameId":"TamarTreasure",
  "width":480,
  "height":800,
  "landscape":false,
  "language":"zh",
  "languageJson":false,
  "preloader":"flax.Preloader",
  "domainAllowed":[
    
  ],
  "project_type":"javascript",
  "debugMode":1,
  "showFPS":false,
  "frameRate":60,
  "id":"gameCanvas",
  "renderMode":1,
  "engineDir":"frameworks/cocos2d-html5",
  "modules":[
    "cocos2d"
  ],
  "jsList":[
    "src/flax/Flax.js",
    "src/flax/signal/SignalBinding.js",
    "src/flax/signal/Signal.js",
    "src/flax/signal/wrapper.js",
    "src/flax/core/DebugDraw.js",
    "src/flax/core/InputManager.js",
    "src/flax/core/FlaxLoader.js",
    "src/flax/core/AssetsManager.js",
    "src/flax/core/Physics.js",
    "src/flax/module/TileMapModule.js",
    "src/flax/module/ScreenLayoutModule.js",
    "src/flax/module/MoveModule.js",
    "src/flax/core/FlaxSprite.js",
    "src/flax/core/Animator.js",
    "src/flax/core/Image.js",
    "src/flax/core/MovieClip.js",
    "src/flax/core/ProgressBar.js",
    "src/flax/core/Label.js",
    "src/flax/core/Button.js",
    "src/flax/game/Preloader.js",
    "src/flax/game/TileMap.js",
    "src/flax/game/UserData.js",
    "src/flax/game/ObjectPool.js",
    "src/flax/module/HealthModule.js",
    "src/flax/module/EnemyWaveModule.js",
    "src/flax/game/SoundButton.js",
    "src/flax/game/Gun.js",
    "src/flax/game/Gunner.js",
    "src/flax/game/ScrollingBG.js",
    "src/flax/game/ScrollPane.js",
    "src/flax/game/TiledImage.js",
    "src/flax/game/LinkFinder.js",


    "src/resource.js",
    "src/Scene/PlayScene.js",
    "src/Scene/StartScene.js",
    "src/Layer/PlayLayer.js",
    "src/Layer/StartLayer.js",
    "src/Layer/OverLayer.js",
    "src/Layer/NewGuiderLayer.js",
    "src/Data/GameData.js",
    "src/frist.js",
    "src/Angin.js",
    "src/Data.js",
    "src/NetMain.js",
    "src/Angin1.js"
  ]
}